G04 EAGLE Gerber X2 export*
%TF.Part,Single*%
%TF.FileFunction,Legend,Bot,1*%
%TF.FilePolarity,Positive*%
%TF.GenerationSoftware,Autodesk,EAGLE,9.0.1*%
%TF.CreationDate,2018-06-14T23:25:34Z*%
G75*
%MOMM*%
%FSLAX34Y34*%
%LPD*%
%AMOC8*
5,1,8,0,0,1.08239X$1,22.5*%
G01*
%ADD10C,0.203200*%
%ADD11C,0.127000*%


D10*
X557000Y609500D02*
X527200Y609500D01*
X527200Y533500D01*
X557000Y533500D01*
X765800Y533500D02*
X765800Y609500D01*
X764838Y612037D01*
X763814Y614550D01*
X762729Y617036D01*
X761584Y619496D01*
X760379Y621927D01*
X759116Y624328D01*
X757794Y626697D01*
X756414Y629033D01*
X754978Y631335D01*
X753486Y633601D01*
X751939Y635830D01*
X750339Y638021D01*
X748685Y640171D01*
X746980Y642281D01*
X745223Y644349D01*
X743416Y646373D01*
X741561Y648353D01*
X739658Y650286D01*
X737708Y652173D01*
X735713Y654011D01*
X733673Y655800D01*
X731590Y657539D01*
X729466Y659226D01*
X727301Y660862D01*
X725097Y662443D01*
X722854Y663971D01*
X720576Y665443D01*
X718262Y666860D01*
X715914Y668219D01*
X713533Y669521D01*
X711122Y670764D01*
X708681Y671948D01*
X706211Y673072D01*
X703715Y674135D01*
X701194Y675137D01*
X698649Y676078D01*
X696082Y676956D01*
X693494Y677771D01*
X690887Y678522D01*
X688263Y679210D01*
X685622Y679834D01*
X682968Y680392D01*
X680300Y680886D01*
X677621Y681315D01*
X674932Y681678D01*
X672235Y681976D01*
X669532Y682207D01*
X666824Y682373D01*
X664113Y682472D01*
X661400Y682505D01*
X658687Y682472D01*
X655976Y682373D01*
X653268Y682207D01*
X650565Y681976D01*
X647868Y681678D01*
X645179Y681315D01*
X642500Y680886D01*
X639832Y680392D01*
X637178Y679834D01*
X634537Y679210D01*
X631913Y678522D01*
X629306Y677771D01*
X626718Y676956D01*
X624151Y676078D01*
X621606Y675137D01*
X619085Y674135D01*
X616589Y673072D01*
X614119Y671948D01*
X611678Y670764D01*
X609267Y669521D01*
X606886Y668219D01*
X604538Y666860D01*
X602224Y665443D01*
X599946Y663971D01*
X597703Y662443D01*
X595499Y660862D01*
X593334Y659226D01*
X591210Y657539D01*
X589127Y655800D01*
X587087Y654011D01*
X585092Y652173D01*
X583142Y650286D01*
X581239Y648353D01*
X579384Y646373D01*
X577577Y644349D01*
X575820Y642281D01*
X574115Y640171D01*
X572461Y638021D01*
X570861Y635830D01*
X569314Y633601D01*
X567822Y631335D01*
X566386Y629033D01*
X565006Y626697D01*
X563684Y624328D01*
X562421Y621927D01*
X561216Y619496D01*
X560071Y617036D01*
X558986Y614550D01*
X557962Y612037D01*
X557000Y609500D01*
X557000Y533500D02*
X557962Y530963D01*
X558986Y528450D01*
X560071Y525964D01*
X561216Y523504D01*
X562421Y521073D01*
X563684Y518672D01*
X565006Y516303D01*
X566386Y513967D01*
X567822Y511665D01*
X569314Y509399D01*
X570861Y507170D01*
X572461Y504979D01*
X574115Y502829D01*
X575820Y500719D01*
X577577Y498651D01*
X579384Y496627D01*
X581239Y494647D01*
X583142Y492714D01*
X585092Y490827D01*
X587087Y488989D01*
X589127Y487200D01*
X591210Y485461D01*
X593334Y483774D01*
X595499Y482138D01*
X597703Y480557D01*
X599946Y479029D01*
X602224Y477557D01*
X604538Y476140D01*
X606886Y474781D01*
X609267Y473479D01*
X611678Y472236D01*
X614119Y471052D01*
X616589Y469928D01*
X619085Y468865D01*
X621606Y467863D01*
X624151Y466922D01*
X626718Y466044D01*
X629306Y465229D01*
X631913Y464478D01*
X634537Y463790D01*
X637178Y463166D01*
X639832Y462608D01*
X642500Y462114D01*
X645179Y461685D01*
X647868Y461322D01*
X650565Y461024D01*
X653268Y460793D01*
X655976Y460627D01*
X658687Y460528D01*
X661400Y460495D01*
X664113Y460528D01*
X666824Y460627D01*
X669532Y460793D01*
X672235Y461024D01*
X674932Y461322D01*
X677621Y461685D01*
X680300Y462114D01*
X682968Y462608D01*
X685622Y463166D01*
X688263Y463790D01*
X690887Y464478D01*
X693494Y465229D01*
X696082Y466044D01*
X698649Y466922D01*
X701194Y467863D01*
X703715Y468865D01*
X706211Y469928D01*
X708681Y471052D01*
X711122Y472236D01*
X713533Y473479D01*
X715914Y474781D01*
X718262Y476140D01*
X720576Y477557D01*
X722854Y479029D01*
X725097Y480557D01*
X727301Y482138D01*
X729466Y483774D01*
X731590Y485461D01*
X733673Y487200D01*
X735713Y488989D01*
X737708Y490827D01*
X739658Y492714D01*
X741561Y494647D01*
X743416Y496627D01*
X745223Y498651D01*
X746980Y500719D01*
X748685Y502829D01*
X750339Y504979D01*
X751939Y507170D01*
X753486Y509399D01*
X754978Y511665D01*
X756414Y513967D01*
X757794Y516303D01*
X759116Y518672D01*
X760379Y521073D01*
X761584Y523504D01*
X762729Y525964D01*
X763814Y528450D01*
X764838Y530963D01*
X765800Y533500D01*
D11*
X771666Y565204D02*
X771666Y566544D01*
X771667Y566544D02*
X771665Y566615D01*
X771659Y566687D01*
X771650Y566757D01*
X771637Y566827D01*
X771620Y566897D01*
X771599Y566965D01*
X771575Y567032D01*
X771547Y567098D01*
X771516Y567162D01*
X771481Y567225D01*
X771443Y567285D01*
X771402Y567344D01*
X771358Y567400D01*
X771311Y567454D01*
X771262Y567505D01*
X771209Y567553D01*
X771154Y567599D01*
X771097Y567641D01*
X771037Y567681D01*
X770976Y567717D01*
X770912Y567750D01*
X770847Y567779D01*
X770781Y567805D01*
X770713Y567828D01*
X770644Y567847D01*
X770574Y567862D01*
X770504Y567873D01*
X770433Y567881D01*
X770362Y567885D01*
X770290Y567885D01*
X770219Y567881D01*
X770148Y567873D01*
X770078Y567862D01*
X770008Y567847D01*
X769939Y567828D01*
X769871Y567805D01*
X769805Y567779D01*
X769740Y567750D01*
X769676Y567717D01*
X769615Y567681D01*
X769555Y567641D01*
X769498Y567599D01*
X769443Y567553D01*
X769390Y567505D01*
X769341Y567454D01*
X769294Y567400D01*
X769250Y567344D01*
X769209Y567285D01*
X769171Y567225D01*
X769136Y567162D01*
X769105Y567098D01*
X769077Y567032D01*
X769053Y566965D01*
X769032Y566897D01*
X769015Y566827D01*
X769002Y566757D01*
X768993Y566687D01*
X768987Y566615D01*
X768985Y566544D01*
X768985Y565204D01*
X773811Y565204D01*
X773811Y566544D01*
X773809Y566609D01*
X773803Y566673D01*
X773793Y566737D01*
X773780Y566801D01*
X773762Y566863D01*
X773741Y566924D01*
X773717Y566984D01*
X773688Y567042D01*
X773656Y567099D01*
X773621Y567153D01*
X773583Y567205D01*
X773541Y567255D01*
X773497Y567302D01*
X773450Y567346D01*
X773400Y567388D01*
X773348Y567426D01*
X773294Y567461D01*
X773237Y567493D01*
X773179Y567522D01*
X773119Y567546D01*
X773058Y567567D01*
X772996Y567585D01*
X772932Y567598D01*
X772868Y567608D01*
X772804Y567614D01*
X772739Y567616D01*
X772674Y567614D01*
X772610Y567608D01*
X772546Y567598D01*
X772482Y567585D01*
X772420Y567567D01*
X772359Y567546D01*
X772299Y567522D01*
X772241Y567493D01*
X772184Y567461D01*
X772130Y567426D01*
X772078Y567388D01*
X772028Y567346D01*
X771981Y567302D01*
X771937Y567255D01*
X771895Y567205D01*
X771857Y567153D01*
X771822Y567099D01*
X771790Y567042D01*
X771761Y566984D01*
X771737Y566924D01*
X771716Y566863D01*
X771698Y566801D01*
X771685Y566737D01*
X771675Y566673D01*
X771669Y566609D01*
X771667Y566544D01*
X773811Y571335D02*
X768985Y571335D01*
X773811Y569995D02*
X773811Y572676D01*
X772739Y575115D02*
X773811Y576456D01*
X768985Y576456D01*
X768985Y577796D02*
X768985Y575115D01*
M02*
